…
It is an order of bulgarian yogurt, by user id 112108, placed on 10am on
4th day of week, Wednesday. The yogurt is in aisle 120, in the dairy
eggs department. He purchased this product 4 times before and his last
order was 9 days ago.

Number of aisles and which aisles the most items are ordered from:

``` r
instacart %>%
  count(aisle_id, name = "n") %>% 
arrange (desc(n))
```

    ## # A tibble: 134 x 2
    ##    aisle_id      n
    ##       <int>  <int>
    ##  1       83 150609
    ##  2       24 150473
    ##  3      123  78493
    ##  4      120  55240
    ##  5       21  41699
    ##  6      115  36617
    ##  7       84  32644
    ##  8      107  31269
    ##  9       91  26240
    ## 10      112  23635
    ## # … with 124 more rows
…
``` r
cleanbrfss_data = 
  brfss_smart2010 %>% #clean data 
  janitor::clean_names() %>% 
  separate(locationdesc, into = c("state", "county"), sep=3) %>%
  select (-locationabbr) %>%
   filter(topic == "Overall Health", response %in% c("Poor","Fair","Good","Very good", "Excellent")) %>% 
  mutate(county = stringr::str_replace(county, "- ", ""), response = factor(response, levels = c("Poor", "Fair","Good", "Very good", "Excellent"))) 
cleanbrfss_data
```

    ## # A tibble: 10,625 x 23
    ##     year state county class topic question response sample_size data_value
    ##    <int> <chr> <chr>  <chr> <chr> <chr>    <fct>          <int>      <dbl>
    ##  1  2010 "AL " Jeffe… Heal… Over… How is … Excelle…          94       18.9
    ##  2  2010 "AL " Jeffe… Heal… Over… How is … Very go…         148       30  
    ##  3  2010 "AL " Jeffe… Heal… Over… How is … Good             208       33.1
    ##  4  2010 "AL " Jeffe… Heal… Over… How is … Fair             107       12.5
    ##  5  2010 "AL " Jeffe… Heal… Over… How is … Poor              45        5.5
    ##  6  2010 "AL " Mobil… Heal… Over… How is … Excelle…          91       15.6
    ##  7  2010 "AL " Mobil… Heal… Over… How is … Very go…         177       31.3
    ##  8  2010 "AL " Mobil… Heal… Over… How is … Good             224       31.2
    ##  9  2010 "AL " Mobil… Heal… Over… How is … Fair             120       15.5
    ## 10  2010 "AL " Mobil… Heal… Over… How is … Poor              66        6.4
    ## # … with 10,615 more rows, and 14 more variables:
    ## #   confidence_limit_low <dbl>, confidence_limit_high <dbl>,
    ## #   display_order <int>, data_value_unit <chr>, data_value_type <chr>,
    ## #   data_value_footnote_symbol <chr>, data_value_footnote <chr>,
    ## #   data_source <chr>, class_id <chr>, topic_id <chr>, location_id <chr>,
    ## #   question_id <chr>, respid <chr>, geo_location <chr>
…
Dataset limited to Excellent responses, and contains, year, state,
averages of the data\_value across locations within a state:

``` r
brfss_excellent = cleanbrfss_data %>% 
  filter(response == "Excellent") %>%
  group_by(year, state, county) %>% 
  summarize(avg_data = mean(data_value))
brfss_excellent
```

    ## # A tibble: 2,125 x 4
    ## # Groups:   year, state [443]
    ##     year state county                 avg_data
    ##    <int> <chr> <chr>                     <dbl>
    ##  1  2002 "AK " Anchorage Municipality     27.9
    ##  2  2002 "AL " Jefferson County           18.5
    ##  3  2002 "AR " Pulaski County             24.1
    ##  4  2002 "AZ " Maricopa County            21.6
    ##  5  2002 "AZ " Pima County                26.6
    ##  6  2002 "CA " Los Angeles County         22.7
    ##  7  2002 "CO " Adams County               21.2
    ##  8  2002 "CO " Arapahoe County            25.5
    ##  9  2002 "CO " Denver County              22.2
    ## 10  2002 "CO " Jefferson County           23.4
    ## # … with 2,115 more rows
…
    ## Parsed with column specification:
    ## cols(
    ##   .default = col_double(),
    ##   day = col_character()
    ## )

    ## See spec(...) for full column specifications.

``` r
acc_data
```

    ## # A tibble: 50,400 x 7
    ##     week day_id day    activity_min activity_count weekkday weekend
    ##    <dbl>  <dbl> <chr>  <chr>                 <dbl> <lgl>    <lgl>  
    ##  1     1      1 Friday " 1"                   88.4 TRUE     FALSE  
    ##  2     1      1 Friday " 2"                   82.2 TRUE     FALSE  
    ##  3     1      1 Friday " 3"                   64.4 TRUE     FALSE  
    ##  4     1      1 Friday " 4"                   70.0 TRUE     FALSE  
    ##  5     1      1 Friday " 5"                   75.0 TRUE     FALSE  
    ##  6     1      1 Friday " 6"                   66.3 TRUE     FALSE  
    ##  7     1      1 Friday " 7"                   53.8 TRUE     FALSE  
    ##  8     1      1 Friday " 8"                   47.8 TRUE     FALSE  
    ##  9     1      1 Friday " 9"                   55.5 TRUE     FALSE  
    ## 10     1      1 Friday " 10"                  43.0 TRUE     FALSE  
    ## # … with 50,390 more rows
…
